{
	"info": {
		"_postman_id": "e1d3ea11-7f2d-49a3-9a65-5cfd0273e9a8",
		"name": "s36 activity",
		"schema": "https://schema.getpostman.com/json/collection/v2.1.0/collection.json",
		"_exporter_id": "25231833"
	},
	"item": [
		{
			"name": "get task",
			"request": {
				"method": "GET",
				"header": [],
				"url": {
					"raw": "http://localhost:4000/tasks/63db484740996223e95f8632",
					"protocol": "http",
					"host": [
						"localhost"
					],
					"port": "4000",
					"path": [
						"tasks",
						"63db484740996223e95f8632"
					]
				}
			},
			"response": []
		},
		{
			"name": "change status",
			"request": {
				"method": "PUT",
				"header": [],
				"body": {
					"mode": "raw",
					"raw": "{\r\n    \"status\": \"complete\"\r\n}",
					"options": {
						"raw": {
							"language": "json"
						}
					}
				},
				"url": {
					"raw": "localhost:4000/tasks/63db2c788e34fd5dc8964f24/complete",
					"host": [
						"localhost"
					],
					"port": "4000",
					"path": [
						"tasks",
						"63db2c788e34fd5dc8964f24",
						"complete"
					]
				}
			},
			"response": []
		}
	]
}